{
    "status": 200,
    "error": {},
    "data": {
      "roles": [
        {
       
          "type": "tenant",
          "tenantId": 1234,
          "siteId": "1233",
          "institutionId": 1234,
          "name": "Tenant Default Role1",
          "code": "TenantCustomRole1",
          "description": "Role decription",
          "isGlobal": true,
          "createdTime": "2017-12-11T05:21:33.830Z",
          "updatedTime": "2017-12-11T05:21:33.830Z",
          "isActive": true,
          "userCount":10
        },
         {
         
          "type": "tenant",
          "tenantId": 1234,
          "siteId": "1233",
          "institutionId": 1234,
          "name": "Tenant Default Role2",
          "code": "TenantCustomRole1",
          "description": "Role decription",
          "isGlobal": true,
          "createdTime": "2017-12-11T05:21:33.830Z",
          "updatedTime": "2017-12-11T05:21:33.830Z",
          "isActive": true,
          "userCount":10
        },
         {
       
          "type": "tenant",
          "tenantId": 1234,
          "siteId": "1233",
          "institutionId": 333,
          "name": "Tenant Default Role3",
          "code": "TenantCustomRole1",
          "description": "Role decription",
          "isGlobal": false,
          "createdTime": "2017-12-11T05:21:33.830Z",
          "updatedTime": "2017-12-11T05:21:33.830Z",
          "isActive": true,
          "userCount":10
        },
        {
      
         "type": "tenant",
         "tenantId": 1234,
         "siteId": "1233",
         "institutionId": 333,
         "name": "Tenant Default RoleX",
         "code": "TenantCustomRole1",
         "description": "Role decription",
         "isGlobal": false,
         "createdTime": "2017-12-11T05:21:33.830Z",
         "updatedTime": "2017-12-11T05:21:33.830Z",
         "isActive": true,
         "userCount":10
       },
       {
     
        "type": "tenant",
        "tenantId": 1234,
        "siteId": "1233",
        "institutionId": 333,
        "name": "Tenant Default Role3",
        "code": "TenantCustomRole1",
        "description": "Role decription",
        "isGlobal": false,
        "createdTime": "2017-12-11T05:21:33.830Z",
        "updatedTime": "2017-12-11T05:21:33.830Z",
        "isActive": true,
        "userCount":10
      },
      {
    
       "type": "tenant",
       "tenantId": 1234,
       "siteId": "1233",
       "institutionId": 333,
       "name": "Tenant Default Role3",
       "code": "TenantCustomRole1",
       "description": "Role decription",
       "isGlobal": false,
       "createdTime": "2017-12-11T05:21:33.830Z",
       "updatedTime": "2017-12-11T05:21:33.830Z",
       "isActive": true,
       "userCount":10
     },
     {
   
      "type": "tenant",
      "tenantId": 1234,
      "siteId": "1233",
      "institutionId": 333,
      "name": "Tenant Default Role3",
      "code": "TenantCustomRole1",
      "description": "Role decription",
      "isGlobal": false,
      "createdTime": "2017-12-11T05:21:33.830Z",
      "updatedTime": "2017-12-11T05:21:33.830Z",
      "isActive": true,
      "userCount":10
    },
    {
  
     "type": "tenant",
     "tenantId": 1234,
     "siteId": "1233",
     "institutionId": 333,
     "name": "Tenant Default Role3",
     "code": "TenantCustomRole1",
     "description": "Role decription",
     "isGlobal": false,
     "createdTime": "2017-12-11T05:21:33.830Z",
     "updatedTime": "2017-12-11T05:21:33.830Z",
     "isActive": true,
     "userCount":10
   },
   {
 
    "type": "tenant",
    "tenantId": 1234,
    "siteId": "1233",
    "institutionId": 333,
    "name": "Tenant Default Role3",
    "code": "TenantCustomRole1",
    "description": "Role decription",
    "isGlobal": false,
    "createdTime": "2017-12-11T05:21:33.830Z",
    "updatedTime": "2017-12-11T05:21:33.830Z",
    "isActive": true,
    "userCount":10
  },
  {

   "type": "tenant",
   "tenantId": 1234,
   "siteId": "1233",
   "institutionId": 333,
   "name": "Tenant Default Role3",
   "code": "TenantCustomRole1",
   "description": "Role decription",
   "isGlobal": false,
   "createdTime": "2017-12-11T05:21:33.830Z",
   "updatedTime": "2017-12-11T05:21:33.830Z",
   "isActive": true,
   "userCount":10
 },
 {

  "type": "tenant",
  "tenantId": 1234,
  "siteId": "1233",
  "institutionId": 333,
  "name": "Tenant Default Role3",
  "code": "TenantCustomRole1",
  "description": "Role decription",
  "isGlobal": false,
  "createdTime": "2017-12-11T05:21:33.830Z",
  "updatedTime": "2017-12-11T05:21:33.830Z",
  "isActive": true,
  "userCount":10
},
{

 "type": "tenant",
 "tenantId": 1234,
 "siteId": "1233",
 "institutionId": 333,
 "name": "Tenant Default Role3",
 "code": "TenantCustomRole1",
 "description": "Role decription",
 "isGlobal": false,
 "createdTime": "2017-12-11T05:21:33.830Z",
 "updatedTime": "2017-12-11T05:21:33.830Z",
 "isActive": true,
 "userCount":10
},
{

 "type": "tenant",
 "tenantId": 1234,
 "siteId": "1233",
 "institutionId": 333,
 "name": "Tenant Default Role3",
 "code": "TenantCustomRole1",
 "description": "Role decription",
 "isGlobal": false,
 "createdTime": "2017-12-11T05:21:33.830Z",
 "updatedTime": "2017-12-11T05:21:33.830Z",
 "isActive": true,
 "userCount":10
},
{

 "type": "tenant",
 "tenantId": 1234,
 "siteId": "1233",
 "institutionId": 333,
 "name": "Tenant Default Role3",
 "code": "TenantCustomRole1",
 "description": "Role decription",
 "isGlobal": false,
 "createdTime": "2017-12-11T05:21:33.830Z",
 "updatedTime": "2017-12-11T05:21:33.830Z",
 "isActive": true,
 "userCount":10
}
      ],
      "_pagination" :{
        "isFirst": true,
        "isLast": false,
        "pageNumber": 1,
        "totalCount": 100,
        "totalPages": 20,
        "pageSize": 5
    }
    }
   
  }